IC Contest Pratice/dump.vcd
$date
   Sat Jul 15 12:07:03 2023
$end
$version
  2023.1
$end
$timescale
  1ps
$end
$scope module testfixture $end
$var integer 32 ! fd [31:0] $end
$var integer 32 " tg_sum [31:0] $end
$var integer 32 # patnum [31:0] $end
$var reg 1 $ CLK $end
$var reg 1 % RST $end
$var reg 4 & X [3:0] $end
$var reg 4 ' Y [3:0] $end
$var wire 4 ( C1X [3:0] $end
$var wire 4 ) C1Y [3:0] $end
$var wire 4 * C2X [3:0] $end
$var wire 4 + C2Y [3:0] $end
$var wire 1 , DONE $end
$var reg 2 - state [1:0] $end
$var reg 2 . rst_count [1:0] $end
$var reg 6 / pixel_count [5:0] $end
$var reg 32 0 pat_n [31:0] $end
$var reg 31 1 cycle_pat [30:0] $end
$var reg 31 2 cycle_total [30:0] $end
$var integer 32 3 i [31:0] $end
$var integer 32 4 charcount [31:0] $end
$var integer 32 5 freturn [31:0] $end
$var integer 32 6 j [31:0] $end
$var integer 32 7 cover_sum [31:0] $end
$var integer 32 8 total_cover_sum [31:0] $end
$var integer 32 9 optimum_sum [31:0] $end
$var integer 32 : d1 [31:0] $end
$var integer 32 ; d2 [31:0] $end
$var integer 32 < wait_done [31:0] $end
$scope module u_LASER $end
$var wire 1 = CLK $end
$var wire 1 > RST $end
$var wire 4 ? X [3:0] $end
$var wire 4 @ Y [3:0] $end
$var reg 4 A C1X [3:0] $end
$var reg 4 B C1Y [3:0] $end
$var reg 4 C C2X [3:0] $end
$var reg 4 D C2Y [3:0] $end
$var reg 1 E DONE $end
$var reg 8 F cnt [7:0] $end
$var reg 8 G cnt_nxt [7:0] $end
$var reg 4 H x1 [3:0] $end
$var reg 4 I y1 [3:0] $end
$var reg 4 J x2 [3:0] $end
$var reg 4 K y2 [3:0] $end
$var reg 4 L x_best [3:0] $end
$var reg 4 M y_best [3:0] $end
$var reg 4 N cs [3:0] $end
$var reg 4 O ns [3:0] $end
$var reg 40 P p1_list [39:0] $end
$var reg 40 Q p1_max_list [39:0] $end
$var reg 40 R p2_list [39:0] $end
$var reg 5 S c1_covered_nxt [4:0] $end
$var reg 5 T c1_covered [4:0] $end
$var reg 4 U x [3:0] $end
$var reg 4 V y [3:0] $end
$var integer 32 W i [31:0] $end
$var integer 32 X j [31:0] $end
$upscope $end
$scope task count_cover $end
$var reg 4 Y C1X [3:0] $end
$var reg 4 Z C1Y [3:0] $end
$var reg 4 [ C2X [3:0] $end
$var reg 4 \ C2Y [3:0] $end
$var integer 32 ] cover_sum [31:0] $end
$var integer 32 ^ total_cover_sum [31:0] $end
$var integer 32 _ optimum_sum [31:0] $end
$upscope $end
$upscope $end
$enddefinitions $end
#0
$dumpvars
b11111111111111111011000111100000 !
bx "
bx #
0$
0%
bx &
bx '
bx (
bx )
bx *
bx +
x,
b0 -
b0 .
bx /
b0 0
b0 1
b0 2
b110 3
b0 4
b10 5
b101000 6
bx 7
b0 8
b0 9
bx :
bx ;
bx <
0=
0>
bx ?
bx @
bx A
bx B
bx C
bx D
xE
bx F
bx G
bx H
bx I
bx J
bx K
bx L
bx M
bx N
bx O
bx P
bx Q
bx R
bx S
bx T
bx U
bx V
bx W
bx X
bx Y
bx Z
bx [
bx \
bx ]
bx ^
bx _
$end
#4000
1$
b1 2
1=
#5000
1%
b1011 &
b0 '
b0 (
b0 )
b0 *
b0 +
0,
b1 .
b0 /
b0 <
1>
b1011 ?
b0 @
b0 A
b0 B
b0 C
b0 D
0E
b0 F
b1 G
b0 N
b0 O
bx S
b0 U
b0 V
b101000 W
#8000
0$
0=
#12000
1$
b10 2
1=
b0 H
b0 I
b0 J
b0 K
b0 L
b0 M
bx0 P
b0 R
bx S
b0 T
b101000 W
#13000
b10 .
#16000
0$
0=
#20000
1$
b11 2
1=
bx00 P
bx S
b101000 W
#21000
0%
b1 -
b0 .
0>
#24000
0$
0=
#28000
1$
b100 2
1=
b1 F
b10 G
bx000 P
bx S
b1 U
b101000 W
#29000
b10 &
b1 '
b1 /
b10 ?
b1 @
#32000
0$
0=
#36000
1$
b101 2
1=
b10 F
b11 G
bx0001 P
bx S
b10 U
b101000 W
#37000
b1000 &
b10 /
b1000 ?
#40000
0$
0=
#44000
1$
b110 2
1=
b11 F
b100 G
bx00010 P
bx S
b11 U
b101000 W
#45000
b1010 &
b11 /
b1010 ?
#48000
0$
0=
#52000
1$
b111 2
1=
b100 F
b101 G
bx000100 P
bx S
b100 U
b101000 W
#53000
b100 &
b110 '
b100 /
b100 ?
b110 @
#56000
0$
0=
#60000
1$
b1000 2
1=
b101 F
b110 G
bx0001100 P
bx S
b101 U
b101000 W
#61000
b1 &
b111 '
b101 /
b1 ?
b111 @
#64000
0$
0=
#68000
1$
b1001 2
1=
b110 F
b111 G
bx00001000 P
bx S
b110 U
b101000 W
#69000
b10 &
b110 /
b10 ?
#72000
0$
0=
#76000
1$
b1010 2
1=
b111 F
b1000 G
bx111011000 P
bx S
b111 U
b101000 W
#77000
b111 &
b111 /
b111 ?
#80000
0$
0=
#84000
1$
b1011 2
1=
b1000 F
b1001 G
bx1110110000 P
bx S
b1000 U
b101000 W
#85000
b1000 &
b1000 /
b1000 ?
#88000
0$
0=
#92000
1$
b1100 2
1=
b1001 F
b1010 G
bx11101100000 P
bx S
b1001 U
b101000 W
#93000
b1001 &
b1001 /
b1001 ?
#96000
0$
0=
#100000
1$
b1101 2
1=
b1010 F
b1011 G
bx111011000000 P
bx S
b1010 U
b101000 W
#101000
b1101 &
b1010 /
b1101 ?
#104000
0$
0=
#108000
1$
b1110 2
1=
b1011 F
b1100 G
bx1110110000000 P
bx S
b1011 U
b101000 W
#109000
b101 &
b1000 '
b1011 /
b101 ?
b1000 @
#112000
0$
0=
#116000
1$
b1111 2
1=
b1100 F
b1101 G
bx11100100000000 P
bx S
b1100 U
b101000 W
#117000
b111 &
b1100 /
b111 ?
#120000
0$
0=
#124000
1$
b10000 2
1=
b1101 F
b1110 G
bx111001000000000 P
bx S
b1101 U
b101000 W
#125000
b100 &
b1001 '
b1101 /
b100 ?
b1001 @
#128000
0$
0=
#132000
1$
b10001 2
1=
b1110 F
b1111 G
bx1110000000000000 P
bx S
b1110 U
b101000 W
#133000
b110 &
b1110 /
b110 ?
#136000
0$
0=
#140000
1$
b10010 2
1=
b1111 F
b10000 G
bx11100000000000000 P
bx S
b1111 U
b101000 W
#141000
b1010 &
b1111 /
b1010 ?
#144000
0$
0=
#148000
1$
b10011 2
1=
b10000 F
b10001 G
bx000100000000000000 P
bx S
b0 U
b1 V
b101000 W
#149000
b1100 &
b10000 /
b1100 ?
#152000
0$
0=
#156000
1$
b10100 2
1=
b10001 F
b10010 G
bx0001000000000000000 P
bx S
b1 U
b101000 W
#157000
b11 &
b1010 '
b10001 /
b11 ?
b1010 @
#160000
0$
0=
#164000
1$
b10101 2
1=
b10010 F
b10011 G
bx00010000000000000000 P
bx S
b10 U
b101000 W
#165000
b111 &
b10010 /
b111 ?
#168000
0$
0=
#172000
1$
b10110 2
1=
b10011 F
b10100 G
bx000100000000000000000 P
bx S
b11 U
b101000 W
#173000
b1000 &
b10011 /
b1000 ?
#176000
0$
0=
#180000
1$
b10111 2
1=
b10100 F
b10101 G
bx0001100000000000000000 P
bx S
b100 U
b101000 W
#181000
b1101 &
b10100 /
b1101 ?
#184000
0$
0=
#188000
1$
b11000 2
1=
b10101 F
b10110 G
bx00011000000000000000000 P
bx S
b101 U
b101000 W
#189000
b1110 &
b10101 /
b1110 ?
#192000
0$
0=
#196000
1$
b11001 2
1=
b10110 F
b10111 G
bx000111000000000000000000 P
bx S
b110 U
b101000 W
#197000
b11 &
b1011 '
b10110 /
b11 ?
b1011 @
#200000
0$
0=
#204000
1$
b11010 2
1=
b10111 F
b11000 G
bx0000110000000000000000000 P
bx S
b111 U
b101000 W
#205000
b111 &
b10111 /
b111 ?
#208000
0$
0=
#212000
1$
b11011 2
1=
b11000 F
b11001 G
bx11101100000000000000000000 P
bx S
b1000 U
b101000 W
#213000
b1000 &
b11000 /
b1000 ?
#216000
0$
0=
#220000
1$
b11100 2
1=
b11001 F
b11010 G
bx111011000000000000000000000 P
bx S
b1001 U
b101000 W
#221000
b1011 &
b11001 /
b1011 ?
#224000
0$
0=
#228000
1$
b11101 2
1=
b11010 F
b11011 G
bx1110110000000000000000000000 P
bx S
b1010 U
b101000 W
#229000
b1100 &
b11010 /
b1100 ?
#232000
0$
0=
#236000
1$
b11110 2
1=
b11011 F
b11100 G
bx11101100000000000000000000000 P
bx S
b1011 U
b101000 W
#237000
b1 &
b1100 '
b11011 /
b1 ?
b1100 @
#240000
0$
0=
#244000
1$
b11111 2
1=
b11100 F
b11101 G
bx111011000000000000000000000000 P
bx S
b1100 U
b101000 W
#245000
b101 &
b11100 /
b101 ?
#248000
0$
0=
#252000
1$
b100000 2
1=
b11101 F
b11110 G
bx1110010000000000000000000000000 P
bx S
b1101 U
b101000 W
#253000
b1000 &
b11101 /
b1000 ?
#256000
0$
0=
#260000
1$
b100001 2
1=
b11110 F
b11111 G
bx11100100000000000000000000000000 P
bx S
b1110 U
b101000 W
#261000
b1011 &
b11110 /
b1011 ?
#264000
0$
0=
#268000
1$
b100010 2
1=
b11111 F
b100000 G
bx000000000000000000000000000000000 P
bx S
b1111 U
b101000 W
#269000
b1101 &
b11111 /
b1101 ?
#272000
0$
0=
#276000
1$
b100011 2
1=
b100000 F
b100001 G
bx0001000000000000000000000000000000 P
bx S
b0 U
b10 V
b101000 W
#277000
b1110 &
b100000 /
b1110 ?
#280000
0$
0=
#284000
1$
b100100 2
1=
b100001 F
b100010 G
bx00010000000000000000000000000000000 P
bx S
b1 U
b101000 W
#285000
b11 &
b1101 '
b100001 /
b11 ?
b1101 @
#288000
0$
0=
#292000
1$
b100101 2
1=
b100010 F
b100011 G
bx000100000000000000000000000000000000 P
bx S
b10 U
b101000 W
#293000
b100 &
b100010 /
b100 ?
#296000
0$
0=
#300000
1$
b100110 2
1=
b100011 F
b100100 G
bx0001000000000000000000000000000000000 P
bx S
b11 U
b101000 W
#301000
b1101 &
b100011 /
b1101 ?
#304000
0$
0=
#308000
1$
b100111 2
1=
b100100 F
b100101 G
bx00010010000000000000000000000000000000 P
bx S
b100 U
b101000 W
#309000
b1001 &
b1110 '
b100100 /
b1001 ?
b1110 @
#312000
0$
0=
#316000
1$
b101000 2
1=
b100101 F
b100110 G
bx000110000000000000000000000000000000000 P
bx S
b101 U
b101000 W
#317000
b1011 &
b100101 /
b1011 ?
#320000
0$
0=
#324000
1$
b101001 2
1=
b100110 F
b100111 G
b100000000000000000000000000000000000 P
b1 S
b110 U
b101000 W
#325000
b1101 &
b100110 /
b1101 ?
#328000
0$
0=
#332000
1$
b101010 2
1=
b100111 F
b101000 G
b1 O
b1100000000000000000000000000000000000 P
b10 S
b111 U
b101000 W
#333000
b110 &
b1111 '
b100111 /
b110 ?
b1111 @
#336000
0$
0=
#340000
1$
b101011 2
1=
b0 F
b1 G
b1 N
b100000000000000000000000000000000000000 P
b1 S
b0 U
b0 V
b101000 W
#341000
bx &
bx '
b101000 /
bx ?
bx @
#344000
0$
0=
#348000
1$
b10 -
b101100 2
1=
b1 F
b10 G
b100000000000000000000000000000000000000 Q
b1 S
b1 T
b1 U
b101000 W
#352000
0$
0=
#356000
1$
b1 1
b101101 2
1=
b10 F
b100 G
b1 H
b1 S
b10 U
b101000 W
#360000
0$
0=
#364000
1$
b10 1
b101110 2
1=
b100 F
b101 G
b10 H
b1 S
b100 U
b101000 W
#368000
0$
0=
#372000
1$
b11 1
b101111 2
1=
b101 F
b1000 G
b100 H
b110000000000000000000000000000000000000 P
b10 S
b101 U
b101000 W
#376000
0$
0=
#380000
1$
b100 1
b110000 2
1=
b1000 F
b1010 G
b101 H
b1011000000000000000000000000000000000000 P
b110000000000000000000000000000000000000 Q
b11 S
b10 T
b1000 U
b101000 W
#384000
0$
0=
#388000
1$
b101 1
b110001 2
1=
b1010 F
b1011 G
b1000 H
b1011000000000000000000000000000000000000 Q
b11 S
b11 T
b1010 U
b101000 W
#392000
0$
0=
#396000
1$
b110 1
b110010 2
1=
b1011 F
b1100 G
b1010 H
b11 S
b1011 U
b101000 W
#400000
0$
0=
#404000
1$
b111 1
b110011 2
1=
b1100 F
b101100 G
b1011 H
b1001000000000000000000000000000000000000 P
b10 S
b1100 U
b101000 W
#408000
0$
0=
#412000
1$
b1000 1
b110100 2
1=
b101100 F
b110100 G
b10 S
b10 V
b101000 W
#416000
0$
0=
#420000
1$
b1001 1
b110101 2
1=
b110100 F
b1001100 G
b100100000000000000000000000000000000000 P
b10 S
b100 U
b11 V
b101000 W
#424000
0$
0=
#428000
1$
b1010 1
b110110 2
1=
b1001100 F
b1010100 G
b1000000100000000000000000000000000000 P
b10 S
b1100 U
b100 V
b101000 W
#432000
0$
0=
#436000
1$
b1011 1
b110111 2
1=
b1010100 F
b1010101 G
b111100010100000000000000000000000000 P
b110 S
b100 U
b101 V
b101000 W
#440000
0$
0=
#444000
1$
b1100 1
b111000 2
1=
b1010101 F
b1011000 G
b100 H
b101 I
b101110011000000000000000000000000000 P
b111100010100000000000000000000000000 Q
b110 S
b110 T
b101 U
b101000 W
#448000
0$
0=
#452000
1$
b1101 1
b111001 2
1=
b1011000 F
b1011010 G
b101 H
b10000111001000000000000000000000000000 P
b101110011000000000000000000000000000 Q
b101 S
b1000 U
b101000 W
#456000
0$
0=
#460000
1$
b1110 1
b111010 2
1=
b1011010 F
b1011011 G
b1000111100001000000000000000000000000 P
b110 S
b1010 U
b101000 W
#464000
0$
0=
#468000
1$
b1111 1
b111011 2
1=
b1011011 F
b1011100 G
b1010 H
b11100000000000000000000000000000 P
b1000111100001000000000000000000000000 Q
b11 S
b1011 U
b101000 W
#472000
0$
0=
#476000
1$
b10000 1
b111100 2
1=
b1011100 F
b1100001 G
b1100000100000000000000000000000 P
b11 S
b1100 U
b101000 W
#480000
0$
0=
#484000
1$
b10001 1
b111101 2
1=
b1100001 F
b1100010 G
b111000000000000000000000000000000000 P
b11 S
b1 U
b110 V
b101000 W
#488000
0$
0=
#492000
1$
b10010 1
b111110 2
1=
b1100010 F
b1100100 G
b111000010100000000000000000000000000 P
b101 S
b10 U
b101000 W
#496000
0$
0=
#500000
1$
b10011 1
b111111 2
1=
b1100100 F
b1100101 G
b111100011110000000000000000000000000 P
b1000 S
b100 U
b101000 W
#504000
0$
0=
#508000
1$
b10100 1
b1000000 2
1=
b1100101 F
b1101000 G
b100 H
b110 I
b101110011110000000000000000000000000 P
b111100011110000000000000000000000000 Q
b1000 S
b1000 T
b101 U
b101000 W
#512000
0$
0=
#516000
1$
b10101 1
b1000001 2
1=
b1101000 F
b1101010 G
b101 H
b100111011011000100000000000000000000 P
b101110011110000000000000000000000000 Q
b1001 S
b1000 U
b101000 W
#520000
0$
0=
#524000
1$
b10110 1
b1000010 2
1=
b1101010 F
b1101011 G
b1000 H
b111101001100000000000000000000000 P
b100111011011000100000000000000000000 Q
b111 S
b1001 T
b1010 U
b101000 W
#528000
0$
0=
#532000
1$
b10111 1
b1000011 2
1=
b1101011 F
b1101100 G
b11100001100000000000000000000000 P
b101 S
b1011 U
b101000 W
#536000
0$
0=
#540000
1$
b11000 1
b1000100 2
1=
b1101100 F
b1110001 G
b1100001100000000000000000000000 P
b100 S
b1100 U
b101000 W
#544000
0$
0=
#548000
1$
b11001 1
b1000101 2
1=
b1110001 F
b1110010 G
b111000000100010000000000000000000000 P
b101 S
b1 U
b111 V
b101000 W
#552000
0$
0=
#556000
1$
b11010 1
b1000110 2
1=
b1110010 F
b1110100 G
b111000010100010000000000000000000000 P
b110 S
b10 U
b101000 W
#560000
0$
0=
#564000
1$
b11011 1
b1000111 2
1=
b1110100 F
b1110101 G
b111110011110010000000000000000000000 P
b1010 S
b100 U
b101000 W
#568000
0$
0=
#572000
1$
b11100 1
b1001000 2
1=
b1110101 F
b1111000 G
b100 H
b111 I
b111111011110011000000000000000000000 P
b111110011110010000000000000000000000 Q
b1100 S
b1010 T
b101 U
b101000 W
#576000
0$
0=
#580000
1$
b11101 1
b1001001 2
1=
b1111000 F
b1111010 G
b101 H
b111011011001100001000000000000000 P
b111111011110011000000000000000000000 Q
b1010 S
b1100 T
b1000 U
b101000 W
#584000
0$
0=
#588000
1$
b11110 1
b1001010 2
1=
b1111010 F
b10010011 G
b111101001100100000000000000000000 P
b1000 S
b1010 U
b101000 W
#592000
0$
0=
#596000
1$
b11111 1
b1001011 2
1=
b10010011 F
b10011011 G
b111000010110010000100001100001000000 P
b1011 S
b11 U
b1001 V
b101000 W
#600000
0$
0=
#604000
1$
b100000 1
b1001100 2
1=
b10011011 F
b10011101 G
b11100001100111001110001100000000 P
b1101 S
b1011 U
b101000 W
#608000
0$
0=
#612000
1$
b100001 1
b1001101 2
1=
b10011101 F
b10100001 G
b1011 H
b1001 I
b100001100011000110001110010000 P
b11100001100111001110001100000000 Q
b1011 S
b1101 T
b1101 U
b101000 W
#616000
0$
0=
#620000
1$
b100010 1
b1001110 2
1=
b10100001 F
b10100010 G
b11000000100010000100001000001000000 P
b111 S
b1 U
b1010 V
b101000 W
#624000
0$
0=
#628000
1$
b100011 1
b1001111 2
1=
b10100010 F
b10100100 G
b11000010100010000100001100001100000 P
b1010 S
b10 U
b101000 W
#632000
0$
0=
#636000
1$
b100100 1
b1010000 2
1=
b10100100 F
b10100101 G
b101000011110011100110001100001100000 P
b1111 S
b100 U
b101000 W
#640000
0$
0=
#644000
1$
b100101 1
b1010001 2
1=
b10100101 F
b10101000 G
b100 H
b1010 I
b100011110011100111000110001100000 P
b101000011110011100110001100001100000 Q
b1111 S
b1111 T
b101 U
b101000 W
#648000
0$
0=
#652000
1$
b100110 1
b1010010 2
1=
b10101000 F
b10101010 G
b101 H
b111011011001100011100111000000000 P
b100011110011100111000110001100000 Q
b1111 S
b1000 U
b101000 W
#656000
0$
0=
#660000
1$
b100111 1
b1010011 2
1=
b10101010 F
b10101011 G
b1000 H
b11001001101111011110011100000000 P
b111011011001100011100111000000000 Q
b10000 S
b1010 U
b101000 W
#664000
0$
0=
#668000
1$
b101000 1
b1010100 2
1=
b10101011 F
b10101100 G
b1010 H
b1100001101111001110011110010100 P
b11001001101111011110011100000000 Q
b10001 S
b10000 T
b1011 U
b101000 W
#672000
0$
0=
#676000
1$
b101001 1
b1010101 2
1=
b10101100 F
b10110001 G
b1011 H
b100001100111000110001110010000 P
b1100001101111001110011110010100 Q
b1100 S
b10001 T
b1100 U
b101000 W
#680000
0$
0=
#684000
1$
b101010 1
b1010110 2
1=
b10110001 F
b10110010 G
b10000000100010000100001000001100000 P
b111 S
b1 U
b1011 V
b101000 W
#688000
0$
0=
#692000
1$
b101011 1
b1010111 2
1=
b10110010 F
b10110100 G
b1000000100010000100001100001100000 P
b1000 S
b10 U
b101000 W
#696000
0$
0=
#700000
1$
b101100 1
b1011000 2
1=
b10110100 F
b10110111 G
b10110011000111001100001100000 P
b1100 S
b100 U
b101000 W
#704000
0$
0=
#708000
1$
b101101 1
b1011001 2
1=
b10110111 F
b10111010 G
b10 O
b100011111001100111100110000101000 P
b10000 S
b111 U
b101000 W
#712000
0$
0=
#716000
1$
b101110 1
b1011010 2
1=
b0 F
b10 N
b1 O
b100000000000000000000000000000000000000 P
b1 S
b0 U
b0 V
b101000 W
#720000
0$
0=
#724000
1$
b101111 1
b1011011 2
1=
b1 G
b0 H
b0 I
b1011 J
b1010 K
b1 N
b1100001101111001110011110010100 R
b1 S
b0 T
b101000 W
#728000
0$
0=
#732000
1$
b110000 1
b1011100 2
1=
b1 F
b10 G
b100000000000000000000000000000000000000 Q
b1 S
b1 T
b1 U
b101000 W
#736000
0$
0=
#740000
1$
b110001 1
b1011101 2
1=
b10 F
b100 G
b1 H
b1 S
b10 U
b101000 W
#744000
0$
0=
#748000
1$
b110010 1
b1011110 2
1=
b100 F
b101 G
b10 H
b1 S
b100 U
b101000 W
#752000
0$
0=
#756000
1$
b110011 1
b1011111 2
1=
b101 F
b1000 G
b100 H
b110000000000000000000000000000000000000 P
b10 S
b101 U
b101000 W
#760000
0$
0=
#764000
1$
b110100 1
b1100000 2
1=
b1000 F
b1010 G
b101 H
b1011000000000000000000000000000000000000 P
b110000000000000000000000000000000000000 Q
b11 S
b10 T
b1000 U
b101000 W
#768000
0$
0=
#772000
1$
b110101 1
b1100001 2
1=
b1010 F
b1011 G
b1000 H
b1011000000000000000000000000000000000000 Q
b11 S
b11 T
b1010 U
b101000 W
#776000
0$
0=
#780000
1$
b110110 1
b1100010 2
1=
b1011 F
b1100 G
b1010 H
b11 S
b1011 U
b101000 W
#784000
0$
0=
#788000
1$
b110111 1
b1100011 2
1=
b1100 F
b101100 G
b1011 H
b1001000000000000000000000000000000000000 P
b10 S
b1100 U
b101000 W
#792000
0$
0=
#796000
1$
b111000 1
b1100100 2
1=
b101100 F
b110100 G
b10 S
b10 V
b101000 W
#800000
0$
0=
#804000
1$
b111001 1
b1100101 2
1=
b110100 F
b1001100 G
b100100000000000000000000000000000000000 P
b10 S
b100 U
b11 V
b101000 W
#808000
0$
0=
#812000
1$
b111010 1
b1100110 2
1=
b1001100 F
b1010100 G
b1000000100000000000000000000000000000 P
b1 S
b1100 U
b100 V
b101000 W
#816000
0$
0=
#820000
1$
b111011 1
b1100111 2
1=
b1010100 F
b1010101 G
b111100010100000000000000000000000000 P
b110 S
b100 U
b101 V
b101000 W
#824000
0$
0=
#828000
1$
b111100 1
b1101000 2
1=
b1010101 F
b1011000 G
b100 H
b101 I
b101110011000000000000000000000000000 P
b111100010100000000000000000000000000 Q
b110 S
b110 T
b101 U
b101000 W
#832000
0$
0=
#836000
1$
b111101 1
b1101001 2
1=
b1011000 F
b1011010 G
b101 H
b10000111001000000000000000000000000000 P
b101110011000000000000000000000000000 Q
b100 S
b1000 U
b101000 W
#840000
0$
0=
#844000
1$
b111110 1
b1101010 2
1=
b1011010 F
b1011011 G
b1000111100001000000000000000000000000 P
b11 S
b1010 U
b101000 W
#848000
0$
0=
#852000
1$
b111111 1
b1101011 2
1=
b1011011 F
b1011100 G
b11100000000000000000000000000000 P
b1 S
b1011 U
b101000 W
#856000
0$
0=
#860000
1$
b1000000 1
b1101100 2
1=
b1011100 F
b1100001 G
b1100000100000000000000000000000 P
b0 S
b1100 U
b101000 W
#864000
0$
0=
#868000
1$
b1000001 1
b1101101 2
1=
b1100001 F
b1100010 G
b111000000000000000000000000000000000 P
b11 S
b1 U
b110 V
b101000 W
#872000
0$
0=
#876000
1$
b1000010 1
b1101110 2
1=
b1100010 F
b1100100 G
b111000010100000000000000000000000000 P
b101 S
b10 U
b101000 W
#880000
0$
0=
#884000
1$
b1000011 1
b1101111 2
1=
b1100100 F
b1100101 G
b111100011110000000000000000000000000 P
b1000 S
b100 U
b101000 W
#888000
0$
0=
#892000
1$
b1000100 1
b1110000 2
1=
b1100101 F
b1101000 G
b100 H
b110 I
b101110011110000000000000000000000000 P
b111100011110000000000000000000000000 Q
b1000 S
b1000 T
b101 U
b101000 W
#896000
0$
0=
#900000
1$
b1000101 1
b1110001 2
1=
b1101000 F
b1101010 G
b101 H
b100111011011000100000000000000000000 P
b101110011110000000000000000000000000 Q
b110 S
b1000 U
b101000 W
#904000
0$
0=
#908000
1$
b1000110 1
b1110010 2
1=
b1101010 F
b1101011 G
b111101001100000000000000000000000 P
b11 S
b1010 U
b101000 W
#912000
0$
0=
#916000
1$
b1000111 1
b1110011 2
1=
b1101011 F
b1101100 G
b11100001100000000000000000000000 P
b1 S
b1011 U
b101000 W
#920000
0$
0=
#924000
1$
b1001000 1
b1110100 2
1=
b1101100 F
b1110001 G
b1100001100000000000000000000000 P
b0 S
b1100 U
b101000 W
#928000
0$
0=
#932000
1$
b1001001 1
b1110101 2
1=
b1110001 F
b1110010 G
b111000000100010000000000000000000000 P
b101 S
b1 U
b111 V
b101000 W
#936000
0$
0=
#940000
1$
b1001010 1
b1110110 2
1=
b1110010 F
b1110100 G
b111000010100010000000000000000000000 P
b110 S
b10 U
b101000 W
#944000
0$
0=
#948000
1$
b1001011 1
b1110111 2
1=
b1110100 F
b1110101 G
b111110011110010000000000000000000000 P
b1010 S
b100 U
b101000 W
#952000
0$
0=
#956000
1$
b1001100 1
b1111000 2
1=
b1110101 F
b1111000 G
b100 H
b111 I
b111111011110011000000000000000000000 P
b111110011110010000000000000000000000 Q
b1010 S
b1010 T
b101 U
b101000 W
#960000
0$
0=
#964000
1$
b1001101 1
b1111001 2
1=
b1111000 F
b1111010 G
b101 H
b111011011001100001000000000000000 P
b111111011110011000000000000000000000 Q
b101 S
b1000 U
b101000 W
#968000
0$
0=
#972000
1$
b1001110 1
b1111010 2
1=
b1111010 F
b10010011 G
b111101001100100000000000000000000 P
b11 S
b1010 U
b101000 W
#976000
0$
0=
#980000
1$
b1001111 1
b1111011 2
1=
b10010011 F
b10011011 G
b111000010110010000100001100001000000 P
b1011 S
b11 U
b1001 V
b101000 W
#984000
0$
0=
#988000
1$
b1010000 1
b1111100 2
1=
b10011011 F
b10011101 G
b11 H
b1001 I
b11100001100111001110001100000000 P
b111000010110010000100001100001000000 Q
b1 S
b1011 T
b1011 U
b101000 W
#992000
0$
0=
#996000
1$
b1010001 1
b1111101 2
1=
b10011101 F
b10100001 G
b100001100011000110001110010000 P
b0 S
b1101 U
b101000 W
#1000000
0$
0=
#1004000
1$
b1010010 1
b1111110 2
1=
b10100001 F
b10100010 G
b11000000100010000100001000001000000 P
b111 S
b1 U
b1010 V
b101000 W
#1008000
0$
0=
#1012000
1$
b1010011 1
b1111111 2
1=
b10100010 F
b10100100 G
b11000010100010000100001100001100000 P
b1010 S
b10 U
b101000 W
#1016000
0$
0=
#1020000
1$
b1010100 1
b10000000 2
1=
b10100100 F
b10100101 G
b101000011110011100110001100001100000 P
b1101 S
b100 U
b101000 W
#1024000
0$
0=
#1028000
1$
b1010101 1
b10000001 2
1=
b10100101 F
b10101000 G
b100 H
b1010 I
b100011110011100111000110001100000 P
b101000011110011100110001100001100000 Q
b1011 S
b1101 T
b101 U
b101000 W
#1032000
0$
0=
#1036000
1$
b1010110 1
b10000010 2
1=
b10101000 F
b10101010 G
b111011011001100011100111000000000 P
b111 S
b1000 U
b101000 W
#1040000
0$
0=
#1044000
1$
b1010111 1
b10000011 2
1=
b10101010 F
b10101011 G
b11001001101111011110011100000000 P
b11 S
b1010 U
b101000 W
#1048000
0$
0=
#1052000
1$
b1011000 1
b10000100 2
1=
b10101011 F
b10101100 G
b1100001101111001110011110010100 P
b0 S
b1011 U
b101000 W
#1056000
0$
0=
#1060000
1$
b1011001 1
b10000101 2
1=
b10101100 F
b10110001 G
b100001100111000110001110010000 P
b1100 U
b101000 W
#1064000
0$
0=
#1068000
1$
b1011010 1
b10000110 2
1=
b10110001 F
b10110010 G
b10000000100010000100001000001100000 P
b111 S
b1 U
b1011 V
b101000 W
#1072000
0$
0=
#1076000
1$
b1011011 1
b10000111 2
1=
b10110010 F
b10110100 G
b1000000100010000100001100001100000 P
b1000 S
b10 U
b101000 W
#1080000
0$
0=
#1084000
1$
b1011100 1
b10001000 2
1=
b10110100 F
b10110111 G
b10110011000111001100001100000 P
b1010 S
b100 U
b101000 W
#1088000
0$
0=
#1092000
1$
b1011101 1
b10001001 2
1=
b10110111 F
b10111010 G
b10 O
b100011111001100111100110000101000 P
b1010 S
b111 U
b101000 W
#1096000
0$
0=
#1100000
1$
b1011110 1
b10001010 2
1=
b0 F
b10 N
b1 O
b100000000000000000000000000000000000000 P
b1 S
b0 U
b0 V
b101000 W
#1104000
0$
0=
#1108000
1$
b1011111 1
b10001011 2
1=
b1 G
b0 H
b0 I
b100 J
b1011 L
b1010 M
b1 N
b101000011110011100110001100001100000 R
b1 S
b0 T
b101000 W
#1112000
0$
0=
#1116000
1$
b1100000 1
b10001100 2
1=
b1 F
b10 G
b100000000000000000000000000000000000000 Q
b1 S
b1 T
b1 U
b101000 W
#1120000
0$
0=
#1124000
1$
b1100001 1
b10001101 2
1=
b10 F
b100 G
b1 H
b1 S
b10 U
b101000 W
#1128000
0$
0=
#1132000
1$
b1100010 1
b10001110 2
1=
b100 F
b101 G
b10 H
b1 S
b100 U
b101000 W
#1136000
0$
0=
#1140000
1$
b1100011 1
b10001111 2
1=
b101 F
b1000 G
b100 H
b110000000000000000000000000000000000000 P
b10 S
b101 U
b101000 W
#1144000
0$
0=
#1148000
1$
b1100100 1
b10010000 2
1=
b1000 F
b1010 G
b101 H
b1011000000000000000000000000000000000000 P
b110000000000000000000000000000000000000 Q
b11 S
b10 T
b1000 U
b101000 W
#1152000
0$
0=
#1156000
1$
b1100101 1
b10010001 2
1=
b1010 F
b1011 G
b1000 H
b1011000000000000000000000000000000000000 Q
b11 S
b11 T
b1010 U
b101000 W
#1160000
0$
0=
#1164000
1$
b1100110 1
b10010010 2
1=
b1011 F
b1100 G
b1010 H
b11 S
b1011 U
b101000 W
#1168000
0$
0=
#1172000
1$
b1100111 1
b10010011 2
1=
b1100 F
b101100 G
b1011 H
b1001000000000000000000000000000000000000 P
b10 S
b1100 U
b101000 W
#1176000
0$
0=
#1180000
1$
b1101000 1
b10010100 2
1=
b101100 F
b110100 G
b10 S
b10 V
b101000 W
#1184000
0$
0=
#1188000
1$
b1101001 1
b10010101 2
1=
b110100 F
b1001100 G
b100100000000000000000000000000000000000 P
b1 S
b100 U
b11 V
b101000 W
#1192000
0$
0=
#1196000
1$
b1101010 1
b10010110 2
1=
b1001100 F
b1010100 G
b1000000100000000000000000000000000000 P
b10 S
b1100 U
b100 V
b101000 W
#1200000
0$
0=
